<svg xmlns="http://www.w3.org/2000/svg" xmlns:xlink="http://www.w3.org/1999/xlink" width="70" height="70" viewBox="0 0 70 70">
  <defs>
    <linearGradient id="linear-gradient" x1="-0.038" y1="-0.035" x2="0.866" y2="0.959" gradientUnits="objectBoundingBox">
      <stop offset="0" stop-color="#3428ea"/>
      <stop offset="1" stop-color="#a573ff"/>
    </linearGradient>
    <filter id="Ellipse_38" x="0" y="0" width="70" height="70" filterUnits="userSpaceOnUse">
      <feOffset input="SourceAlpha"/>
      <feGaussianBlur stdDeviation="3" result="blur"/>
      <feFlood flood-color="#573ff0"/>
      <feComposite operator="in" in2="blur"/>
      <feComposite in="SourceGraphic"/>
    </filter>
    <filter id="add" x="15.56" y="18.559" width="38.881" height="38.882" filterUnits="userSpaceOnUse">
      <feOffset dy="3" input="SourceAlpha"/>
      <feGaussianBlur stdDeviation="3" result="blur-2"/>
      <feFlood flood-opacity="0.161"/>
      <feComposite operator="in" in2="blur-2"/>
      <feComposite in="SourceGraphic"/>
    </filter>
  </defs>
  <g id="Group_3110" data-name="Group 3110" transform="translate(-4859 -759)">
    <g transform="matrix(1, 0, 0, 1, 4859, 759)" filter="url(#Ellipse_38)">
      <circle id="Ellipse_38-2" data-name="Ellipse 38" cx="26" cy="26" r="26" transform="translate(9 9)" fill="url(#linear-gradient)"/>
    </g>
    <g transform="matrix(1, 0, 0, 1, 4859, 759)" filter="url(#add)">
      <path id="add-2" data-name="add" d="M19.017,8.576H12.678a.373.373,0,0,1-.373-.373V1.864a1.864,1.864,0,0,0-3.729,0V8.2a.373.373,0,0,1-.373.373H1.864a1.864,1.864,0,0,0,0,3.729H8.2a.373.373,0,0,1,.373.373v6.339a1.864,1.864,0,0,0,3.729,0V12.678a.373.373,0,0,1,.373-.373h6.339a1.864,1.864,0,0,0,0-3.729Zm0,0" transform="translate(24.56 24.56)" fill="#f3f4f9"/>
    </g>
  </g>
</svg>
