<svg xmlns="http://www.w3.org/2000/svg" xmlns:xlink="http://www.w3.org/1999/xlink" width="1210.93" height="520.902" viewBox="0 0 1210.93 520.902">
  <defs>
    <linearGradient id="linear-gradient" x1="0.03" y1="0.903" x2="0.5" gradientUnits="objectBoundingBox">
      <stop offset="0" stop-color="#3428ea"/>
      <stop offset="1" stop-color="#a573ff"/>
    </linearGradient>
    <filter id="Path_4433" x="0" y="0" width="1210.93" height="520.902" filterUnits="userSpaceOnUse">
      <feOffset dy="3" input="SourceAlpha"/>
      <feGaussianBlur stdDeviation="3" result="blur"/>
      <feFlood flood-opacity="0.161"/>
      <feComposite operator="in" in2="blur"/>
      <feComposite in="SourceGraphic"/>
    </filter>
  </defs>
  <g transform="matrix(1, 0, 0, 1, 0, 0)" filter="url(#Path_4433)">
    <path id="Path_4433-2" data-name="Path 4433" d="M22.02,496.768c23.972,18.137,62.835,18.262,86.807-.125L643.9,87.277c23.97-18.322,23.888-47.927-.164-66.126C631.8,12.11,616.086,7.5,600.458,7.5c-15.791,0-31.5,4.61-43.445,13.774L21.938,430.639C-2.034,448.963-1.952,478.569,22.02,496.768Zm1070-.131c23.978,18.387,62.838,18.262,86.808.125,24.052-18.2,24.134-47.8.246-66.129L823.753,158.762c-11.952-9.164-27.736-13.774-43.445-13.774-15.627,0-31.337,4.61-43.281,13.651-24.052,18.2-24.135,47.8-.246,66.126Z" transform="translate(5 -1.5)" fill-rule="evenodd" fill="url(#linear-gradient)"/>
  </g>
</svg>
